<?xml version="1.0" encoding="utf-8"?>
<!-- Generator: Adobe Illustrator 23.1.1, SVG Export Plug-In . SVG Version: 6.00 Build 0)  -->
<svg version="1.1" id="Layer_1" xmlns="http://www.w3.org/2000/svg" xmlns:xlink="http://www.w3.org/1999/xlink" x="0px" y="0px"
	 viewBox="0 0 600 600" style="enable-background:new 0 0 600 600;" xml:space="preserve">
<style type="text/css">
	.st0{fill:#00A14B;}
</style>
<g>
	<g>
		<g>
			<path class="st0" d="M479,296.5l3.2-14.8l-14.7,3.5c-50.8,12.2-84.6,32.7-104.1,47.8c-7.8,6-14,11.7-18.7,16.5
				c3.6-101.2-26.4-176.5-36.1-198.1l-8.6-19.2l-8.6,19.2c-9.7,21.6-39.7,96.9-36.1,198.1c-4.8-4.8-10.9-10.5-18.7-16.5
				c-19.5-15.1-53.3-35.6-104.1-47.8l-14.7-3.5l3.2,14.8c4.3,19.4,24.3,83.3,107.1,124.4c-15.3,6.7-39.6,19.3-53.7,37.1l-10.1,12.9
				l16.2,2.4c12.5,1.8,49.9,5.4,87.3-8.5c0,0,0.1,0.1,0.1,0.1L255.8,546h88.4l-12.1-81.1c0,0,0.1-0.1,0.1-0.1
				c21.8,8.1,43.5,10.3,60.4,10.3c12.1,0,21.7-1.1,26.9-1.9l16.2-2.4l-10.1-12.8c-14-17.8-38.4-30.5-53.7-37.1
				C454.9,379.7,474.8,315.8,479,296.5z M281.7,522.7l10.9-70.3l-6.9-3.7c-10-5.3-16.1-15.6-16.1-26.9c0-16.8,13.6-30.4,30.4-30.4
				c16.8,0,30.4,13.6,30.4,30.4c0,11.3-6.2,21.6-16.1,26.9l-6.9,3.7l10.9,70.3H281.7z"/>
		</g>
	</g>
	<g>
		<path class="st0" d="M127,204.2c3.6-3.3,8.3-4.7,14-4.2c5.8,0.5,10.1,2.8,13.1,6.7c2.9,3.9,4.1,9.4,3.4,16.5l-0.7,7.7l17.1,1.6
			l-1.4,15.2l-54-5.1l2.1-22.8C121.2,212.7,123.4,207.5,127,204.2z M144.9,229.8l0.5-5.5c0.5-5.3-1.5-8.2-5.9-8.6
			c-4.3-0.4-6.8,2-7.3,7.3l-0.5,5.5L144.9,229.8z"/>
		<path class="st0" d="M164.7,142.4c2.9,1.5,5,3.6,6.2,6.3c1.2,2.6,1.5,5.6,0.8,8.9l0.1,0.1c1.6-1.4,3.3-2.3,5.3-2.6
			c2-0.3,4.9-0.2,8.7,0.2l14.7,2.1l-7.5,14.3l-12.1-2c-2.8-0.4-5-0.4-6.5,0.2c-1.5,0.6-2.8,2-3.9,4.1l-1.8,3.4l16.6,8.8l-7.1,13.5
			l-47.9-25.3l11.3-21.3C147.8,141,155.5,137.5,164.7,142.4z M158.9,172.1l3-5.7c2.4-4.5,1.6-7.8-2.3-9.9c-1.9-1-3.7-1.2-5.2-0.4
			c-1.5,0.8-2.9,2.3-4.1,4.6l-2.8,5.4L158.9,172.1z"/>
		<path class="st0" d="M200.6,90.7c4.6-0.7,9.1-0.1,13.5,1.9c4.4,2,8.3,5.2,11.9,9.7c3.6,4.5,5.8,9.1,6.7,13.8
			c0.9,4.7,0.5,9.2-1.2,13.5s-4.8,8.2-9,11.6c-4.3,3.4-8.7,5.4-13.3,6.1c-4.6,0.7-9.1,0-13.4-1.9c-4.4-2-8.3-5.2-11.9-9.7
			c-3.6-4.5-5.8-9.1-6.7-13.8c-0.9-4.7-0.5-9.2,1.2-13.5c1.7-4.3,4.7-8.2,9-11.5C191.6,93.4,196,91.4,200.6,90.7z M191.6,115.1
			c0.2,3.3,1.8,6.8,4.9,10.7c3.1,3.9,6.1,6.3,9.3,7.2c3.1,0.9,6,0.3,8.8-1.8c2.7-2.2,4-4.9,3.8-8.1c-0.2-3.3-1.8-6.8-4.9-10.7
			c-3.1-3.9-6.1-6.3-9.3-7.2c-3.1-0.9-6.1-0.3-8.8,1.9C192.7,109.1,191.4,111.8,191.6,115.1z"/>
		<path class="st0" d="M286.4,113.6l-7.6-20.9c-2.8-8-5-14.5-6.5-19.7l-0.1,0c0.3,6,0.3,12.9,0.1,20.7l-0.5,22.2l-20.3,3.4
			l-19.3-51.7l14.6-2.4l6.4,18.5c2.3,6.5,4.5,13.5,6.8,21.1l0.1,0c-0.3-7.2-0.3-14.6-0.1-22.2l0.6-19.7l19.3-3.2l6.9,18.5
			c2.6,6.7,5,13.7,7.2,21l0.1,0c-0.4-7.4-0.5-14.7-0.5-22.1l0.1-19.6l14.5-2.4l-1.5,55.2L286.4,113.6z"/>
		<path class="st0" d="M346.9,78l-2.4,7.8l21.3,6.7l-3.7,11.7l-21.3-6.7l-2.6,8.3l23.3,7.3l-3.8,12l-37.8-11.9l16.3-51.7l37.4,11.8
			l-3.8,12L346.9,78z"/>
		<path class="st0" d="M402,106l-5.1,6.4l17.4,14l-7.7,9.6l-17.4-14l-5.4,6.8l19.1,15.3l-7.9,9.8l-31-24.8L398,86.6l30.6,24.5
			l-7.9,9.8L402,106z"/>
		<path class="st0" d="M461.5,173.3c-1.7,6.7-6.4,12.1-14,16.2c-7.6,4.1-14.7,5.1-21.3,2.9s-12-7.4-16.4-15.6l-9.7-18l47.7-25.8
			l9.8,18C461.9,159.2,463.2,166.7,461.5,173.3z M418.5,166.2l2.3,4.2c2.1,3.9,4.8,6.3,8.1,7.2c3.3,0.9,6.9,0.2,11-2
			c4.1-2.2,6.6-4.9,7.7-8.1c1.1-3.2,0.5-6.8-1.6-10.7l-2.3-4.2L418.5,166.2z"/>
		<path class="st0" d="M477.9,239.5c-2.7,4.1-6.9,6.4-12.6,6.9l-1.4-15.9c2-0.2,3.4-0.9,4.4-2.1c1-1.2,1.3-2.9,1.2-5.1
			c-0.2-1.9-0.7-3.3-1.5-4.3c-0.9-1-1.9-1.4-3.2-1.3c-1,0.1-1.8,0.5-2.4,1.1c-0.6,0.7-1,1.7-1.4,3c-0.3,1.4-0.7,3.4-1.1,6.1
			c-0.7,4.4-1.5,8-2.4,10.9c-0.9,2.9-2.5,5.3-4.6,7.2s-5.1,3.1-8.8,3.4c-3.6,0.3-6.8-0.3-9.5-2c-2.8-1.6-5-4.1-6.7-7.4
			c-1.7-3.3-2.8-7.4-3.2-12.1c-0.6-7.3,0.5-13.2,3.4-17.6c2.9-4.4,7.3-6.8,13.3-7.4l1.4,16.4c-4.6,0.4-6.7,3.1-6.2,8
			c0.2,2,0.7,3.6,1.7,4.6c0.9,1.1,2.1,1.5,3.5,1.4c1.1-0.1,2-0.5,2.5-1.1c0.6-0.7,1-1.6,1.4-2.9c0.3-1.3,0.7-3.3,1.2-6
			c0.8-4.6,1.7-8.2,2.6-10.9c0.9-2.7,2.3-5,4.4-7c2-1.9,4.9-3,8.5-3.3c3.4-0.3,6.4,0.3,9.1,1.9c2.7,1.5,4.9,3.9,6.6,7.1
			c1.7,3.2,2.7,7.1,3.1,11.7C481.6,229.9,480.5,235.4,477.9,239.5z"/>
	</g>
</g>
</svg>
